src/test/resources/wokwi-logic.vcd
$version Generated by Wokwi.com $end
$date Wed, 26 Mar 2025 10:34:35 GMT $end
$timescale 1ns $end
$scope module logic $end
$var wire 1 ! D0 $end
$var wire 1 " D1 $end
$var wire 1 # D2 $end
$var wire 1 $ D7 $end
$upscope $end
$enddefinitions $end
#0
0!
#0
0"
#0
0#
#0
0$
#40727144
1!
#40727552
1"
#40727960
1#
#40811816
0"
#40812880
1$
#40812880
0!
#40813144
1!
#40813824
0$
#40813824
0!
#40814144
1!
#40814824
1$
#40814824
0!
#40815168
1!
#40815808
0$
#40815808
0!
#40816144
1!
#40816808
0!
#40817160
1!
#40817808
0!
#40818144
1!
#40818848
0!
#40819144
1!
#40819808
0!
#40820144
1!
#40820808
0!
#40821136
1!
#40821808
0!
#40822144
1!
#40822840
1$
#40822840
0!
#40823136
1!
#40823800
0!
#40824144
1!
#40824808
0!
#40825144
1!
#40825800
0!
#40826144
1!
#40826808
0!
#40827136
1!
#40827800
0$
#40827800
0!
#40828136
1!
#40828800
0!
#40829144
1!
#40829800
0!
#40830136
1!
#40830808
0!
#40831128
1!
#40831792
0!
#40832136
1!
#40832800
0!
#40833136
1!
#40833816
1$
#40833816
0!
#40834144
1!
#40834800
0$
#40835144
1"
#40835456
0#
#40836456
1$
#40836456
0!
#40836792
1!
#40837464
0$
#40837464
0!
#40837792
1!
#40838472
1$
#40838472
0!
#40838792
1!
#40839464
0$
#40839464
0!
#40839784
1!
#40840456
0!
#40840784
1!
#40841456
0!
#40841792
1!
#40842448
0!
#40842800
1!
#40843448
0!
#40843792
1!
#40844448
0!
#40844784
1!
#40845456
1$
#40845456
0!
#40845784
1!
#40846448
0!
#40846784
1!
#40847448
0!
#40847776
1!
#40848448
0!
#40848776
1!
#40849456
0!
#40849792
1!
#40850448
0$
#40850448
0!
#40850776
1!
#40851448
0!
#40851776
1!
#40852440
0!
#40852776
1!
#40853440
1$
#40853440
0!
#40853776
1!
#40854448
0!
#40854776
1!
#40855472
0$
#40855472
0!
#40855776
1!
#40856440
0!
#40856808
1!
#40857440
0!
#40857768
1!
#40858776
1#
#2566766720
1!
